{
  "projects": [
    "src/LendFoundry.Configuration.Api",
    "src/LendFoundry.Configuration.Client",
    "test/LendFoundry.Configuration.Api.Tests",
    "test/LendFoundry.Configuration.Client.Tests"
  ]
}